{
  "training_n" : 500, 

  "instruments" : [
    "AUD_JPY",
    "AUD_USD",
    "EUR_JPY",
    "EUR_USD",
    "GBP_JPY",
    "GBP_USD",
    "NZD_USD",
    "USD_CAD", 
    "USD_CHF",
    "USD_JPY"
  ], 

  "hostname" : "api-fxtrade.oanda.com", 
  "stream_hostname" : "stream-fxtrade.oanda.com",

  "output_directory" : "output",
  "plot_directory" : "output",
  "token" : "c241a4ab1c4b3807e94d843a73744511-0573942a5435582c7e4071371a1e3f48",
  "account" : "001-001-1560266-001",
  "granularity" : "H4"

}
